\relax 
\providecommand\hyper@newdestlabel[2]{}
\catcode `"\active 
\providecommand\HyperFirstAtBeginDocument{\AtBeginDocument}
\HyperFirstAtBeginDocument{\ifx\hyper@anchor\@undefined
\global\let\oldcontentsline\contentsline
\gdef\contentsline#1#2#3#4{\oldcontentsline{#1}{#2}{#3}}
\global\let\oldnewlabel\newlabel
\gdef\newlabel#1#2{\newlabelxx{#1}#2}
\gdef\newlabelxx#1#2#3#4#5#6{\oldnewlabel{#1}{{#2}{#3}}}
\AtEndDocument{\ifx\hyper@anchor\@undefined
\let\contentsline\oldcontentsline
\let\newlabel\oldnewlabel
\fi}
\fi}
\global\let\hyper@last\relax 
\gdef\HyperFirstAtBeginDocument#1{#1}
\providecommand\HyField@AuxAddToFields[1]{}
\providecommand\HyField@AuxAddToCoFields[2]{}
\citation{abnt-url-package=url}
\@input{pre-documento/capa.aux}
\FN@pp@footnotehinttrue 
\babel@aux{brazilian}{}
\providecommand {\FN@pp@footnotehinttrue }{}
\providecommand {\FN@pp@footnote@aux }[2]{}
\FN@pp@footnotehinttrue 
\@input{pre-documento/folhaRosto.aux}
\FN@pp@footnotehinttrue 
\@input{pre-documento/resumo/resumo.aux}
\FN@pp@footnotehinttrue 
\@writefile{toc}{\setcounter {tocdepth}{5}}
\FN@pp@footnotehinttrue 
\@input{texto/intro.aux}
\FN@pp@footnotehinttrue 
\@input{texto/revisao.aux}
\FN@pp@footnotehinttrue 
\@input{texto/metodologia.aux}
\FN@pp@footnotehinttrue 
\@input{texto/desenvolvimento.aux}
\FN@pp@footnotehinttrue 
\bibdata{abntex2-options,bibliografia}
\bibcite{de2004acessibilidade}{Associa{\c {c}}\~ao Brasileira de Normas T\'ecnicas 2004}
\bibciteEXPL{de2004acessibilidade}{Associa{\c {c}}\~ao Brasileira de Normas T\'ecnicas}
\bibciteIMPL{de2004acessibilidade}{ASSOCIA{\c {C}}\~AO BRASILEIRA DE NORMAS T\'ECNICAS}
\bibciteYEAR{de2004acessibilidade}{2004}
\bibcite{belz2016android}{Belz 2016}
\bibciteEXPL{belz2016android}{Belz}
\bibciteIMPL{belz2016android}{BELZ}
\bibciteYEAR{belz2016android}{2016}
\bibcite{cordova}{Cordova 2015}
\bibciteEXPL{cordova}{Cordova}
\bibciteIMPL{cordova}{CORDOVA}
\bibciteYEAR{cordova}{2015}
\bibcite{de2011argos}{Filho et al. 2011}
\bibciteEXPL{de2011argos}{Filho et al.}
\bibciteIMPL{de2011argos}{FILHO et al.}
\bibciteYEAR{de2011argos}{2011}
\bibcite{FRANCISCOW2018}{Francisco 2018}
\bibciteEXPL{FRANCISCOW2018}{Francisco}
\bibciteIMPL{FRANCISCOW2018}{FRANCISCO}
\bibciteYEAR{FRANCISCOW2018}{2018}
\bibcite{geodatasource}{GeoDataSource 2017}
\bibciteEXPL{geodatasource}{GeoDataSource}
\bibciteIMPL{geodatasource}{GEODATASOURCE}
\bibciteYEAR{geodatasource}{2017}
\bibcite{PBHABNT}{HORIZONTE 2014}
\bibciteEXPL{PBHABNT}{HORIZONTE}
\bibciteIMPL{PBHABNT}{HORIZONTE}
\bibciteYEAR{PBHABNT}{2014}
\bibcite{ibgecenso2010}{IBGE 2010}
\bibciteEXPL{ibgecenso2010}{IBGE}
\bibciteIMPL{ibgecenso2010}{IBGE}
\bibciteYEAR{ibgecenso2010}{2010}
\bibcite{ibgecenso2011}{IBGE 2011}
\bibciteEXPL{ibgecenso2011}{IBGE}
\bibciteIMPL{ibgecenso2011}{IBGE}
\bibciteYEAR{ibgecenso2011}{2011}
\bibcite{ionicorientation}{IONIC 2017}
\bibciteEXPL{ionicorientation}{IONIC}
\bibciteIMPL{ionicorientation}{IONIC}
\bibciteYEAR{ionicorientation}{2017a}
\bibcite{ionicsqlite}{IONIC 2017}
\bibciteEXPL{ionicsqlite}{IONIC}
\bibciteIMPL{ionicsqlite}{IONIC}
\bibciteYEAR{ionicsqlite}{2017b}
\bibcite{ionicrun}{IONIC 2018}
\bibciteEXPL{ionicrun}{IONIC}
\bibciteIMPL{ionicrun}{IONIC}
\bibciteYEAR{ionicrun}{2018}
\bibcite{mapsapi}{Maps 2017}
\bibciteEXPL{mapsapi}{Maps}
\bibciteIMPL{mapsapi}{MAPS}
\bibciteYEAR{mapsapi}{2017}
\bibcite{mascetti2016}{Mascetti et al. 2016}
\bibciteEXPL{mascetti2016}{Mascetti et al.}
\bibciteIMPL{mascetti2016}{MASCETTI et al.}
\bibciteYEAR{mascetti2016}{2016}
\babel@aux{brazilian}{}
\FN@pp@footnotehinttrue 
\@writefile{toc}{\contentsline {chapter}{Refer\^encias Bibliogr\'aficas}{25}{chapter*.1}}
\bibcite{meikle2004}{Meikle 2004}
\bibciteEXPL{meikle2004}{Meikle}
\bibciteIMPL{meikle2004}{MEIKLE}
\bibciteYEAR{meikle2004}{2004}
\bibcite{MENDES2014}{Mendes 2014}
\bibciteEXPL{MENDES2014}{Mendes}
\bibciteIMPL{MENDES2014}{MENDES}
\bibciteYEAR{MENDES2014}{2014}
\bibcite{aspmvcmicrosoft}{Microsoft 2010}
\bibciteEXPL{aspmvcmicrosoft}{Microsoft}
\bibciteIMPL{aspmvcmicrosoft}{MICROSOFT}
\bibciteYEAR{aspmvcmicrosoft}{2010}
\bibcite{RAMOS2012}{Ramos 2012}
\bibciteEXPL{RAMOS2012}{Ramos}
\bibciteIMPL{RAMOS2012}{RAMOS}
\bibciteYEAR{RAMOS2012}{2012}
\bibcite{SANTOSCASTRO2013}{Santos e Castro 2013}
\bibciteEXPL{SANTOSCASTRO2013}{Santos e Castro}
\bibciteIMPL{SANTOSCASTRO2013}{SANTOS; CASTRO}
\bibciteYEAR{SANTOSCASTRO2013}{2013}
\bibcite{SILVA2017}{Silva 2017}
\bibciteEXPL{SILVA2017}{Silva}
\bibciteIMPL{SILVA2017}{SILVA}
\bibciteYEAR{SILVA2017}{2017}
\bibcite{vlissides1995design}{Vlissides et al. 1995}
\bibciteEXPL{vlissides1995design}{Vlissides et al.}
\bibciteIMPL{vlissides1995design}{VLISSIDES et al.}
\bibciteYEAR{vlissides1995design}{1995}
\bibcite{Winkless1998}{Winkless 2017}
\bibciteEXPL{Winkless1998}{Winkless}
\bibciteIMPL{Winkless1998}{WINKLESS}
\bibciteYEAR{Winkless1998}{2017}
\bibcite{w3c}{Zhu 2016}
\bibciteEXPL{w3c}{Zhu}
\bibciteIMPL{w3c}{ZHU}
\bibciteYEAR{w3c}{2016}
\bibstyle{abntex2-alf}
