\relax 
\providecommand\hyper@newdestlabel[2]{}
\citation{mapsapi}
\FN@pp@footnotehinttrue 
\@writefile{toc}{\contentsline {chapter}{\numberline {4}DESENVOLVIMENTO E RESULTADOS}{16}{chapter.4}}
\@writefile{lof}{\addvspace {10\p@ }}
\@writefile{lot}{\addvspace {10\p@ }}
\newlabel{desenvolvimento}{{4}{16}{DESENVOLVIMENTO E RESULTADOS}{chapter.4}{}}
\@writefile{toc}{\contentsline {section}{\numberline {4.1}\hspace  {-0.3cm}Estrutura de arquivos do projeto em \textit  {IONIC}}{16}{section.4.1}}
\@writefile{lof}{\contentsline {figure}{\numberline {9}{\ignorespaces Estruturas de pastas do projeto\relax }}{16}{figure.4.9}}
\newlabel{estruturapasta}{{9}{16}{Estruturas de pastas do projeto\relax }{figure.4.9}{}}
\@writefile{toc}{\contentsline {section}{\numberline {4.2}\hspace  {-0.3cm}Google \textit  {Maps API}}{16}{section.4.2}}
\citation{geodatasource}
\citation{ionicsqlite}
\@writefile{toc}{\contentsline {section}{\numberline {4.3}\hspace  {-0.3cm}GPS}{17}{section.4.3}}
\@writefile{toc}{\contentsline {section}{\numberline {4.4}\hspace  {-0.3cm}Servi\IeC {\c c}os}{17}{section.4.4}}
\newlabel{localizacao}{{4.4.1}{17}{\esp Localização}{subsection.4.4.1}{}}
\@writefile{toc}{\contentsline {subsection}{\numberline {4.4.1}\hspace  {-0.3cm}Localiza\IeC {\c c}\IeC {\~a}o}{17}{subsection.4.4.1}}
\@writefile{toc}{\contentsline {subsection}{\numberline {4.4.2}\hspace  {-0.3cm}Banco de Dados SQlite}{18}{subsection.4.4.2}}
\newlabel{semaforoservc}{{4.4.3}{18}{\esp Semáforos}{subsection.4.4.3}{}}
\@writefile{toc}{\contentsline {subsection}{\numberline {4.4.3}\hspace  {-0.3cm}Sem\IeC {\'a}foros}{18}{subsection.4.4.3}}
\citation{ionicorientation}
\@writefile{toc}{\contentsline {subsection}{\numberline {4.4.4}\hspace  {-0.3cm}Sentido}{19}{subsection.4.4.4}}
\@writefile{lof}{\contentsline {figure}{\numberline {10}{\ignorespaces Divis\IeC {\~a}o dos pontos cardeais\relax }}{19}{figure.4.10}}
\newlabel{sentidoimg}{{10}{19}{Divisão dos pontos cardeais\relax }{figure.4.10}{}}
\@writefile{lof}{\contentsline {figure}{\numberline {11}{\ignorespaces Representa\IeC {\c c}\IeC {\~a}o do usu\IeC {\'a}rio atravessando um cruzamento\relax }}{20}{figure.4.11}}
\newlabel{cruzamentorua}{{11}{20}{Representação do usuário atravessando um cruzamento\relax }{figure.4.11}{}}
\@writefile{toc}{\contentsline {section}{\numberline {4.5}\hspace  {-0.3cm}Fun\IeC {\c c}\IeC {\~a}o \textit  {start}}{20}{section.4.5}}
\citation{ionicrun}
\citation{w3c}
\@writefile{lof}{\contentsline {figure}{\numberline {12}{\ignorespaces Representa\IeC {\c c}\IeC {\~a}o da identifica\IeC {\c c}\IeC {\~a}o do usu\IeC {\'a}rio completar a travessia\relax }}{22}{figure.4.12}}
\newlabel{atravessarrua}{{12}{22}{Representação da identificação do usuário completar a travessia\relax }{figure.4.12}{}}
\@writefile{toc}{\contentsline {section}{\numberline {4.6}\hspace  {-0.3cm}Testes}{22}{section.4.6}}
\@writefile{lof}{\contentsline {figure}{\numberline {13}{\ignorespaces Localiza\IeC {\c c}\IeC {\~a}o do usu\IeC {\'a}rio no mapa\relax }}{23}{figure.4.13}}
\newlabel{localizacaouser}{{13}{23}{Localização do usuário no mapa\relax }{figure.4.13}{}}
\@writefile{lof}{\contentsline {figure}{\numberline {14}{\ignorespaces Retorno dos sem\IeC {\'a}foros no entorno do usu\IeC {\'a}rio\relax }}{23}{figure.4.14}}
\newlabel{semraio}{{14}{23}{Retorno dos semáforos no entorno do usuário\relax }{figure.4.14}{}}
\FN@pp@footnotehinttrue 
\@writefile{lof}{\contentsline {figure}{\numberline {15}{\ignorespaces Localiza\IeC {\c c}\IeC {\~a}o dos sem\IeC {\'a}foros e o sem\IeC {\'a}foro\relax }}{24}{figure.4.15}}
\newlabel{localizacaosems}{{15}{24}{Localização dos semáforos e o semáforo\relax }{figure.4.15}{}}
\@setckpt{texto/desenvolvimento}{
\setcounter{page}{25}
\setcounter{equation}{0}
\setcounter{enumi}{0}
\setcounter{enumii}{0}
\setcounter{enumiii}{0}
\setcounter{enumiv}{0}
\setcounter{footnote}{0}
\setcounter{mpfootnote}{0}
\setcounter{part}{0}
\setcounter{chapter}{4}
\setcounter{section}{6}
\setcounter{subsection}{0}
\setcounter{subsubsection}{0}
\setcounter{paragraph}{0}
\setcounter{subparagraph}{0}
\setcounter{figure}{15}
\setcounter{table}{0}
\setcounter{float@type}{64}
\setcounter{parentequation}{0}
\setcounter{lofdepth}{1}
\setcounter{lotdepth}{1}
\setcounter{ContinuedFloat}{0}
\setcounter{AM@survey}{0}
\setcounter{Item}{0}
\setcounter{Hfootnote}{0}
\setcounter{bookmark@seq@number}{25}
\setcounter{ABCIaux}{0}
\setcounter{ABCImax}{0}
\setcounter{ALG@line}{0}
\setcounter{ALG@rem}{0}
\setcounter{ALG@nested}{0}
\setcounter{ALG@Lnr}{2}
\setcounter{ALG@blocknr}{10}
\setcounter{ALG@storecount}{0}
\setcounter{ALG@tmpcounter}{0}
\setcounter{lstnumber}{16}
\setcounter{pp@next@reset}{1}
\setcounter{@fnserial}{0}
\setcounter{subsubsubsection}{0}
\setcounter{acronym}{0}
\setcounter{loacdepth}{1}
\setcounter{quadro}{0}
\setcounter{quddepth}{1}
\setcounter{Quadros}{0}
\setcounter{quadros}{0}
\setcounter{expdepth}{1}
\setcounter{grafico}{0}
\setcounter{guddepth}{1}
\setcounter{Graficos}{0}
\setcounter{graficos}{0}
\setcounter{exgdepth}{1}
\setcounter{algoritmo}{0}
\setcounter{auddepth}{1}
\setcounter{Algoritmos}{0}
\setcounter{algoritmos}{0}
\setcounter{exadepth}{1}
\setcounter{section@level}{0}
\setcounter{lstlisting}{0}
}
