\relax 
\providecommand\hyper@newdestlabel[2]{}
\citation{ibgecenso2010}
\citation{FRANCISCOW2018}
\citation{ibgecenso2011}
\citation{MENDES2014}
\citation{PBHABNT}
\citation{SILVA2017}
\FN@pp@footnotehinttrue 
\@writefile{toc}{\contentsline {chapter}{\numberline {1}INTRODU\IeC {\c C}\IeC {\~A}O}{5}{chapter.1}}
\@writefile{lof}{\addvspace {10\p@ }}
\@writefile{lot}{\addvspace {10\p@ }}
\newlabel{introducao}{{1}{5}{INTRODUÇÃO}{chapter.1}{}}
\@writefile{toc}{\contentsline {section}{\numberline {1.1}\hspace  {-0.3cm}Objetivos}{6}{section.1.1}}
\@writefile{toc}{\contentsline {section}{\numberline {1.2}\hspace  {-0.3cm}Objetivos Espec\IeC {\'\i }ficos}{6}{section.1.2}}
\FN@pp@footnotehinttrue 
\@setckpt{texto/intro}{
\setcounter{page}{7}
\setcounter{equation}{0}
\setcounter{enumi}{0}
\setcounter{enumii}{0}
\setcounter{enumiii}{0}
\setcounter{enumiv}{0}
\setcounter{footnote}{0}
\setcounter{mpfootnote}{0}
\setcounter{part}{0}
\setcounter{chapter}{1}
\setcounter{section}{2}
\setcounter{subsection}{0}
\setcounter{subsubsection}{0}
\setcounter{paragraph}{0}
\setcounter{subparagraph}{0}
\setcounter{figure}{0}
\setcounter{table}{0}
\setcounter{float@type}{64}
\setcounter{parentequation}{0}
\setcounter{lofdepth}{1}
\setcounter{lotdepth}{1}
\setcounter{ContinuedFloat}{0}
\setcounter{AM@survey}{0}
\setcounter{Item}{0}
\setcounter{Hfootnote}{0}
\setcounter{bookmark@seq@number}{3}
\setcounter{ABCIaux}{0}
\setcounter{ABCImax}{0}
\setcounter{ALG@line}{0}
\setcounter{ALG@rem}{0}
\setcounter{ALG@nested}{0}
\setcounter{ALG@Lnr}{2}
\setcounter{ALG@blocknr}{10}
\setcounter{ALG@storecount}{0}
\setcounter{ALG@tmpcounter}{0}
\setcounter{lstnumber}{1}
\setcounter{pp@next@reset}{1}
\setcounter{@fnserial}{0}
\setcounter{subsubsubsection}{0}
\setcounter{acronym}{0}
\setcounter{loacdepth}{1}
\setcounter{quadro}{0}
\setcounter{quddepth}{1}
\setcounter{Quadros}{0}
\setcounter{quadros}{0}
\setcounter{expdepth}{1}
\setcounter{grafico}{0}
\setcounter{guddepth}{1}
\setcounter{Graficos}{0}
\setcounter{graficos}{0}
\setcounter{exgdepth}{1}
\setcounter{algoritmo}{0}
\setcounter{auddepth}{1}
\setcounter{Algoritmos}{0}
\setcounter{algoritmos}{0}
\setcounter{exadepth}{1}
\setcounter{section@level}{0}
\setcounter{lstlisting}{0}
}
