\relax 
\providecommand\hyper@newdestlabel[2]{}
\FN@pp@footnotehinttrue 
\@writefile{toc}{\contentsline {chapter}{\numberline {3}METODOLOGIA}{11}{chapter.3}}
\@writefile{lof}{\addvspace {10\p@ }}
\@writefile{lot}{\addvspace {10\p@ }}
\newlabel{metodologia}{{3}{11}{METODOLOGIA}{chapter.3}{}}
\@writefile{toc}{\contentsline {section}{\numberline {3.1}\hspace  {-0.3cm}Requisitos do Aplicativo}{11}{section.3.1}}
\@writefile{lof}{\contentsline {figure}{\numberline {4}{\ignorespaces Fluxograma do aplicativo\relax }}{12}{figure.3.4}}
\newlabel{fluxograma}{{4}{12}{Fluxograma do aplicativo\relax }{figure.3.4}{}}
\citation{vlissides1995design}
\citation{cordova}
\@writefile{toc}{\contentsline {section}{\numberline {3.2}\hspace  {-0.3cm}Arquitetura}{13}{section.3.2}}
\@writefile{lof}{\contentsline {figure}{\numberline {5}{\ignorespaces Arquitetura geral do sistema\relax }}{13}{figure.3.5}}
\newlabel{arquiteturaimg}{{5}{13}{Arquitetura geral do sistema\relax }{figure.3.5}{}}
\@writefile{toc}{\contentsline {subsection}{\numberline {3.2.1}\hspace  {-0.3cm}IONIC \textit  {Framework}}{13}{subsection.3.2.1}}
\citation{aspmvcmicrosoft}
\@writefile{lof}{\contentsline {figure}{\numberline {6}{\ignorespaces Diagrama de classes com o padr\IeC {\~a}o \textit  {Adapter}\relax }}{14}{figure.3.6}}
\newlabel{adapterimg}{{6}{14}{Diagrama de classes com o padrão \textit {Adapter}\relax }{figure.3.6}{}}
\@writefile{lof}{\contentsline {figure}{\numberline {7}{\ignorespaces Arquitetura de uma aplica\IeC {\c c}\IeC {\~a}o Cordova\relax }}{14}{figure.3.7}}
\newlabel{cordovaimg}{{7}{14}{Arquitetura de uma aplicação Cordova\relax }{figure.3.7}{}}
\@writefile{toc}{\contentsline {subsubsection}{\numberline {3.2.1.1}\hspace  {-0.3cm}\textit  {Plugins} Cordova}{14}{subsubsection.3.2.1.1}}
\@writefile{toc}{\contentsline {subsection}{\numberline {3.2.2}\hspace  {-0.3cm}WEB API}{14}{subsection.3.2.2}}
\FN@pp@footnotehinttrue 
\@writefile{lof}{\contentsline {figure}{\numberline {8}{\ignorespaces \textit  {Arquitetura da Web API}\relax }}{15}{figure.3.8}}
\newlabel{mvcwebapi}{{8}{15}{\textit {Arquitetura da Web API}\relax }{figure.3.8}{}}
\@setckpt{texto/metodologia}{
\setcounter{page}{16}
\setcounter{equation}{0}
\setcounter{enumi}{0}
\setcounter{enumii}{0}
\setcounter{enumiii}{0}
\setcounter{enumiv}{0}
\setcounter{footnote}{0}
\setcounter{mpfootnote}{0}
\setcounter{part}{0}
\setcounter{chapter}{3}
\setcounter{section}{2}
\setcounter{subsection}{2}
\setcounter{subsubsection}{0}
\setcounter{paragraph}{0}
\setcounter{subparagraph}{0}
\setcounter{figure}{8}
\setcounter{table}{0}
\setcounter{float@type}{64}
\setcounter{parentequation}{0}
\setcounter{lofdepth}{1}
\setcounter{lotdepth}{1}
\setcounter{ContinuedFloat}{0}
\setcounter{AM@survey}{0}
\setcounter{Item}{0}
\setcounter{Hfootnote}{0}
\setcounter{bookmark@seq@number}{14}
\setcounter{ABCIaux}{0}
\setcounter{ABCImax}{0}
\setcounter{ALG@line}{0}
\setcounter{ALG@rem}{0}
\setcounter{ALG@nested}{0}
\setcounter{ALG@Lnr}{2}
\setcounter{ALG@blocknr}{10}
\setcounter{ALG@storecount}{0}
\setcounter{ALG@tmpcounter}{0}
\setcounter{lstnumber}{1}
\setcounter{pp@next@reset}{1}
\setcounter{@fnserial}{0}
\setcounter{subsubsubsection}{0}
\setcounter{acronym}{0}
\setcounter{loacdepth}{1}
\setcounter{quadro}{0}
\setcounter{quddepth}{1}
\setcounter{Quadros}{0}
\setcounter{quadros}{0}
\setcounter{expdepth}{1}
\setcounter{grafico}{0}
\setcounter{guddepth}{1}
\setcounter{Graficos}{0}
\setcounter{graficos}{0}
\setcounter{exgdepth}{1}
\setcounter{algoritmo}{0}
\setcounter{auddepth}{1}
\setcounter{Algoritmos}{0}
\setcounter{algoritmos}{0}
\setcounter{exadepth}{1}
\setcounter{section@level}{1}
\setcounter{lstlisting}{0}
}
