\relax 
\providecommand\hyper@newdestlabel[2]{}
\@setckpt{texto/Pesquisa}{
\setcounter{page}{8}
\setcounter{equation}{0}
\setcounter{enumi}{5}
\setcounter{enumii}{0}
\setcounter{enumiii}{0}
\setcounter{enumiv}{0}
\setcounter{footnote}{0}
\setcounter{mpfootnote}{0}
\setcounter{@memmarkcntra}{0}
\setcounter{storedpagenumber}{1}
\setcounter{book}{0}
\setcounter{part}{0}
\setcounter{chapter}{2}
\setcounter{section}{4}
\setcounter{subsection}{0}
\setcounter{subsubsection}{0}
\setcounter{paragraph}{0}
\setcounter{subparagraph}{0}
\setcounter{@ppsavesec}{0}
\setcounter{@ppsaveapp}{0}
\setcounter{vslineno}{0}
\setcounter{poemline}{0}
\setcounter{modulo@vs}{0}
\setcounter{memfvsline}{0}
\setcounter{verse}{0}
\setcounter{chrsinstr}{0}
\setcounter{poem}{0}
\setcounter{newflo@tctr}{4}
\setcounter{@contsubnum}{0}
\setcounter{maxsecnumdepth}{4}
\setcounter{sidefootnote}{0}
\setcounter{pagenote}{0}
\setcounter{pagenoteshadow}{0}
\setcounter{memfbvline}{0}
\setcounter{bvlinectr}{0}
\setcounter{cp@cntr}{0}
\setcounter{ism@mctr}{0}
\setcounter{xsm@mctr}{0}
\setcounter{csm@mctr}{0}
\setcounter{ksm@mctr}{0}
\setcounter{xksm@mctr}{0}
\setcounter{cksm@mctr}{0}
\setcounter{msm@mctr}{0}
\setcounter{xmsm@mctr}{0}
\setcounter{cmsm@mctr}{0}
\setcounter{bsm@mctr}{0}
\setcounter{workm@mctr}{0}
\setcounter{sheetsequence}{10}
\setcounter{lastsheet}{11}
\setcounter{lastpage}{9}
\setcounter{figure}{0}
\setcounter{lofdepth}{1}
\setcounter{table}{0}
\setcounter{lotdepth}{1}
\setcounter{Item}{8}
\setcounter{Hfootnote}{0}
\setcounter{memhycontfloat}{0}
\setcounter{Hpagenote}{0}
\setcounter{bookmark@seq@number}{0}
\setcounter{abntex@bookmarkcounter}{2}
\setcounter{alineasi}{0}
\setcounter{alineasii}{0}
\setcounter{subalineasi}{0}
\setcounter{incisosi}{0}
\setcounter{tfl@float@cnt}{0}
\setcounter{float@type}{16}
\setcounter{pp@next@reset}{0}
\setcounter{ABCIaux}{0}
\setcounter{ABCImax}{0}
\setcounter{grafico}{0}
\setcounter{quadro}{0}
\setcounter{section@level}{1}
}
