\relax 
\providecommand\hyper@newdestlabel[2]{}
\citation{acolhimento2005}
\citation{carvalho2015}
\citation{carvalho2015}
\@writefile{toc}{\setlength  {\cftchapterindent }{0em} \setlength  {\cftchapternumwidth }{\cftlastnumwidth }}
\@writefile{toc}{\contentsline {chapter}{\chapternumberline {3}\bfseries  \MakeTextUppercase  {Projeto Ponto Jovem}}{15}{chapter.3}}
\newlabel{Projeto}{{\M@TitleReference {3}{\bfseries  \MakeTextUppercase  {Projeto Ponto Jovem}}}{15}{Projeto Ponto Jovem}{chapter.3}{}}
\AC@undonewlabel{acro:PUC Minas}
\newlabel{acro:PUC Minas}{{\M@TitleReference {3}{\bfseries  \MakeTextUppercase  {Projeto Ponto Jovem}}}{15}{Projeto Ponto Jovem}{section*.6}{}}
\acronymused{PUC Minas}
\acronymused{PUC Minas}
\@writefile{lof}{\contentsline {figure}{\numberline {4}{\ignorespaces Mapa do Site Ponto Jovem}}{16}{figure.3.4}}
\newlabel{figura5}{{\M@TitleReference {4}{Mapa do Site Ponto Jovem}}{16}{Mapa do Site Ponto Jovem}{figure.3.4}{}}
\@setckpt{texto/projeto}{
\setcounter{page}{17}
\setcounter{equation}{0}
\setcounter{enumi}{0}
\setcounter{enumii}{0}
\setcounter{enumiii}{0}
\setcounter{enumiv}{0}
\setcounter{footnote}{0}
\setcounter{mpfootnote}{0}
\setcounter{@memmarkcntra}{-1}
\setcounter{storedpagenumber}{1}
\setcounter{book}{0}
\setcounter{part}{0}
\setcounter{chapter}{3}
\setcounter{section}{0}
\setcounter{subsection}{0}
\setcounter{subsubsection}{0}
\setcounter{paragraph}{0}
\setcounter{subparagraph}{0}
\setcounter{@ppsavesec}{0}
\setcounter{@ppsaveapp}{0}
\setcounter{vslineno}{0}
\setcounter{poemline}{0}
\setcounter{modulo@vs}{0}
\setcounter{memfvsline}{0}
\setcounter{verse}{0}
\setcounter{chrsinstr}{0}
\setcounter{poem}{0}
\setcounter{newflo@tctr}{4}
\setcounter{@contsubnum}{0}
\setcounter{maxsecnumdepth}{4}
\setcounter{sidefootnote}{0}
\setcounter{pagenote}{0}
\setcounter{pagenoteshadow}{0}
\setcounter{memfbvline}{0}
\setcounter{bvlinectr}{0}
\setcounter{cp@cntr}{0}
\setcounter{ism@mctr}{0}
\setcounter{xsm@mctr}{0}
\setcounter{csm@mctr}{0}
\setcounter{ksm@mctr}{0}
\setcounter{xksm@mctr}{0}
\setcounter{cksm@mctr}{0}
\setcounter{msm@mctr}{0}
\setcounter{xmsm@mctr}{0}
\setcounter{cmsm@mctr}{0}
\setcounter{bsm@mctr}{0}
\setcounter{workm@mctr}{0}
\setcounter{sheetsequence}{19}
\setcounter{lastsheet}{43}
\setcounter{lastpage}{41}
\setcounter{figure}{4}
\setcounter{lofdepth}{1}
\setcounter{table}{1}
\setcounter{lotdepth}{1}
\setcounter{Item}{0}
\setcounter{Hfootnote}{1}
\setcounter{memhycontfloat}{0}
\setcounter{Hpagenote}{0}
\setcounter{bookmark@seq@number}{0}
\setcounter{abntex@bookmarkcounter}{1}
\setcounter{alineasi}{0}
\setcounter{alineasii}{0}
\setcounter{subalineasi}{0}
\setcounter{incisosi}{0}
\setcounter{tfl@float@cnt}{0}
\setcounter{float@type}{16}
\setcounter{pp@next@reset}{0}
\setcounter{ABCIaux}{0}
\setcounter{ABCImax}{0}
\setcounter{grafico}{0}
\setcounter{quadro}{0}
\setcounter{section@level}{2}
}
