\relax 
\providecommand\hyper@newdestlabel[2]{}
\citation{de2004acessibilidade}
\citation{SANTOSCASTRO2013}
\citation{RAMOS2012}
\citation{de2011argos}
\citation{Winkless1998}
\citation{mascetti2016}
\FN@pp@footnotehinttrue 
\@writefile{toc}{\contentsline {chapter}{\numberline {2}REFERENCIAL TE\IeC {\'O}RICO}{7}{chapter.2}}
\@writefile{lof}{\addvspace {10\p@ }}
\@writefile{lot}{\addvspace {10\p@ }}
\newlabel{referencial}{{2}{7}{REFERENCIAL TEÓRICO}{chapter.2}{}}
\@writefile{toc}{\contentsline {section}{\numberline {2.1}\hspace  {-0.3cm}Tecnologias assistivas para locomo\IeC {\c c}\IeC {\~a}o}{7}{section.2.1}}
\@writefile{toc}{\contentsline {section}{\numberline {2.2}\hspace  {-0.3cm}Solu\IeC {\c c}\IeC {\~o}es dispon\IeC {\'\i }veis para travessias de ruas}{7}{section.2.2}}
\citation{meikle2004}
\citation{belz2016android}
\newlabel{arqbh}{{2.3}{8}{\esp Arquitetura da BHTRANS}{section.2.3}{}}
\@writefile{toc}{\contentsline {section}{\numberline {2.3}\hspace  {-0.3cm}Arquitetura da BHTRANS}{8}{section.2.3}}
\@writefile{lof}{\contentsline {figure}{\numberline {1}{\ignorespaces Arquitetura de duas redes semaf\IeC {\'o}ricas\relax }}{9}{figure.2.1}}
\providecommand*\caption@xref[2]{\@setref\relax\@undefined{#1}}
\newlabel{arquitetura}{{1}{9}{Arquitetura de duas redes semafóricas\relax }{figure.2.1}{}}
\newlabel{sec:central}{{2.3.1}{9}{\esp Funcionamento da central semafórica}{subsection.2.3.1}{}}
\@writefile{toc}{\contentsline {subsection}{\numberline {2.3.1}\hspace  {-0.3cm}Funcionamento da central semaf\IeC {\'o}rica}{9}{subsection.2.3.1}}
\FN@pp@footnotehinttrue 
\@writefile{lof}{\contentsline {figure}{\numberline {2}{\ignorespaces Controlador semaf\IeC {\'o}rico CD200\relax }}{10}{figure.2.2}}
\newlabel{figura2}{{2}{10}{Controlador semafórico CD200\relax }{figure.2.2}{}}
\@writefile{lof}{\contentsline {figure}{\numberline {3}{\ignorespaces CPU de um controlador semaf\IeC {\'o}rico\relax }}{10}{figure.2.3}}
\newlabel{figura3}{{3}{10}{CPU de um controlador semafórico\relax }{figure.2.3}{}}
\@setckpt{texto/revisao}{
\setcounter{page}{11}
\setcounter{equation}{0}
\setcounter{enumi}{0}
\setcounter{enumii}{0}
\setcounter{enumiii}{0}
\setcounter{enumiv}{0}
\setcounter{footnote}{0}
\setcounter{mpfootnote}{0}
\setcounter{part}{0}
\setcounter{chapter}{2}
\setcounter{section}{3}
\setcounter{subsection}{1}
\setcounter{subsubsection}{0}
\setcounter{paragraph}{0}
\setcounter{subparagraph}{0}
\setcounter{figure}{3}
\setcounter{table}{0}
\setcounter{float@type}{64}
\setcounter{parentequation}{0}
\setcounter{lofdepth}{1}
\setcounter{lotdepth}{1}
\setcounter{ContinuedFloat}{0}
\setcounter{AM@survey}{0}
\setcounter{Item}{0}
\setcounter{Hfootnote}{0}
\setcounter{bookmark@seq@number}{8}
\setcounter{ABCIaux}{0}
\setcounter{ABCImax}{0}
\setcounter{ALG@line}{0}
\setcounter{ALG@rem}{0}
\setcounter{ALG@nested}{0}
\setcounter{ALG@Lnr}{2}
\setcounter{ALG@blocknr}{10}
\setcounter{ALG@storecount}{0}
\setcounter{ALG@tmpcounter}{0}
\setcounter{lstnumber}{1}
\setcounter{pp@next@reset}{1}
\setcounter{@fnserial}{0}
\setcounter{subsubsubsection}{0}
\setcounter{acronym}{0}
\setcounter{loacdepth}{1}
\setcounter{quadro}{0}
\setcounter{quddepth}{1}
\setcounter{Quadros}{0}
\setcounter{quadros}{0}
\setcounter{expdepth}{1}
\setcounter{grafico}{0}
\setcounter{guddepth}{1}
\setcounter{Graficos}{0}
\setcounter{graficos}{0}
\setcounter{exgdepth}{1}
\setcounter{algoritmo}{0}
\setcounter{auddepth}{1}
\setcounter{Algoritmos}{0}
\setcounter{algoritmos}{0}
\setcounter{exadepth}{1}
\setcounter{section@level}{1}
\setcounter{lstlisting}{0}
}
